ISSS608 Visual Analytics And Applications - Tracing the Rise of Szymon Pyć and Predicting the Next Breakout Star
…
 .....suppressing 17245 columns in show(); maybe adjust options(max.print=, width=)
 ..............................

# Top influencers
top_influencers <- graph_tbl %>% 
  as_tibble() %>% 
  filter(`Node Type` == "Person") %>% 
  arrange(desc(eigen_centrality)) %>% 
  slice(1:50)
top_influencers %>% select(display_name, eigen_centrality)

# A tibble: 50 × 2
   display_name     eigen_centrality
   <chr>                       <dbl>
 1 Kimberly Snyder             1    
 2 Gerald Mullins              0.633
 3 Joshua Herring              0.560
 4 Kelly Stewart               0.400
 5 John Anderson               0.315
 6 Rachel Jackson              0.293
 7 Roy Tschentscher            0.239
 8 Erica Walton                0.178
 9 Angelina Sölzer             0.173
10 Thomas Weber                0.170
# ℹ 40 more rows
…
